…
I will focus on the “Overall Health” topic

``` r
brfss_smart2010 %>% 
            mutate(response_order = recode(response, 
                          "1" = "Excellent", 
                          "2" = "Very good", 
                          "3" = "Good",
                          "4" = "Fair",
                          "5" = "Poor"))%>%
mutate(response_order =         as.factor(response_order)) %>% 
  arrange(response_order)
```

    ## # A tibble: 134,203 x 24
    ##     year locationabbr locationdesc  class  topic question   response sample_size
    ##    <int> <chr>        <chr>         <chr>  <chr> <chr>      <chr>          <int>
    ##  1  2009 AL           AL - Jeffers~ Chole~ Chol~ Adults wh~ Checked~         497
    ##  2  2009 AL           AL - Mobile ~ Chole~ Chol~ Adults wh~ Checked~         565
    ##  3  2009 AK           AK - Anchora~ Chole~ Chol~ Adults wh~ Checked~         290
    ##  4  2009 AZ           AZ - Maricop~ Chole~ Chol~ Adults wh~ Checked~        1008
    ##  5  2009 AZ           AZ - Pima Co~ Chole~ Chol~ Adults wh~ Checked~         593
    ##  6  2009 AZ           AZ - Pinal C~ Chole~ Chol~ Adults wh~ Checked~         325
    ##  7  2009 AR           AR - Benton ~ Chole~ Chol~ Adults wh~ Checked~         270
    ##  8  2009 AR           AR - Pulaski~ Chole~ Chol~ Adults wh~ Checked~         461
    ##  9  2009 AR           AR - Washing~ Chole~ Chol~ Adults wh~ Checked~         227
    ## 10  2009 CA           CA - Alameda~ Chole~ Chol~ Adults wh~ Checked~         631
    ## # ... with 134,193 more rows, and 16 more variables: data_value <dbl>,
    ## #   confidence_limit_low <dbl>, confidence_limit_high <dbl>,
    ## #   display_order <int>, data_value_unit <chr>, data_value_type <chr>,
    ## #   data_value_footnote_symbol <chr>, data_value_footnote <chr>,
    ## #   data_source <chr>, class_id <chr>, topic_id <chr>, location_id <chr>,
    ## #   question_id <chr>, respid <chr>, geo_location <chr>, response_order <fct>
…
